%YAML 1.1
%TAG !u! tag:unity3d.com,2011:
--- !u!114 &11400000
MonoBehaviour:
  m_ObjectHideFlags: 0
  m_CorrespondingSourceObject: {fileID: 0}
  m_PrefabInstance: {fileID: 0}
  m_PrefabAsset: {fileID: 0}
  m_GameObject: {fileID: 0}
  m_Enabled: 1
  m_EditorHideFlags: 0
  m_Script: {fileID: 11500000, guid: 9ec569ead27d5603914b63900e48b655, type: 3}
  m_Name: breakPoint_4
  m_EditorClassIdentifier: 
  particleIndices: 04000000
  m_Blueprint: {fileID: 11400000, guid: fed89bba477fa994887ccdf98a59b4db, type: 2}
