%YAML 1.1
%TAG !u! tag:unity3d.com,2011:
--- !u!114 &11400000
MonoBehaviour:
  m_ObjectHideFlags: 0
  m_CorrespondingSourceObject: {fileID: 0}
  m_PrefabInstance: {fileID: 0}
  m_PrefabAsset: {fileID: 0}
  m_GameObject: {fileID: 0}
  m_Enabled: 1
  m_EditorHideFlags: 0
  m_Script: {fileID: 11500000, guid: 44cc8304312515b59b55343091b1daec, type: 3}
  m_Name: DefaultRopeSection_10
  m_EditorClassIdentifier: 
  vertices:
  - x: 1
    y: 0
  - x: 0.70710677
    y: 0.70710677
  - x: -4.371139E-08
    y: 1
  - x: -0.70710677
    y: 0.70710677
  - x: -1
    y: -8.742278E-08
  - x: -0.70710665
    y: -0.7071069
  - x: 1.1924881E-08
    y: -1
  - x: 0.707107
    y: -0.70710653
  - x: 1
    y: 1.7484555E-07
  snapX: 32
  snapY: 32
