%YAML 1.1
%TAG !u! tag:unity3d.com,2011:
--- !u!114 &11400000
MonoBehaviour:
  m_ObjectHideFlags: 0
  m_CorrespondingSourceObject: {fileID: 0}
  m_PrefabInstance: {fileID: 0}
  m_PrefabAsset: {fileID: 0}
  m_GameObject: {fileID: 0}
  m_Enabled: 1
  m_EditorHideFlags: 0
  m_Script: {fileID: 11500000, guid: 0fd1cb9ef1122104dd84bbc8a578482b, type: 3}
  m_Name: rope blueprint_22
  m_EditorClassIdentifier: 
  m_Empty: 0
  m_ActiveParticleCount: 9
  m_InitialActiveParticleCount: 9
  _bounds:
    m_Center:
      x: 0.5
      y: 0
      z: 0
    m_Extent:
      x: 0.5
      y: 0
      z: 0
  positions:
  - x: 0.37856412
    y: 0
    z: 0
  - x: 0.45640638
    y: 0
    z: 0
  - x: 0.53419185
    y: 0
    z: 0
  - x: 0.6119753
    y: 0
    z: 0
  - x: 0.68976676
    y: 0
    z: 0
  - x: 0.7673158
    y: 0
    z: 0
  - x: 0.8448571
    y: 0
    z: 0
  - x: 0.9224004
    y: 0
    z: 0
  - x: 1
    y: 0
    z: 0
  - x: 0
    y: 0
    z: 0
  - x: 0
    y: 0
    z: 0
  - x: 0
    y: 0
    z: 0
  - x: 0
    y: 0
    z: 0
  - x: 0
    y: 0
    z: 0
  - x: 0
    y: 0
    z: 0
  - x: 0
    y: 0
    z: 0
  - x: 0
    y: 0
    z: 0
  - x: 0
    y: 0
    z: 0
  - x: 0
    y: 0
    z: 0
  - x: 0
    y: 0
    z: 0
  - x: 0
    y: 0
    z: 0
  - x: 0
    y: 0
    z: 0
  - x: 0
    y: 0
    z: 0
  - x: 0
    y: 0
    z: 0
  - x: 0
    y: 0
    z: 0
  - x: 0
    y: 0
    z: 0
  - x: 0
    y: 0
    z: 0
  - x: 0
    y: 0
    z: 0
  - x: 0
    y: 0
    z: 0
  - x: 0
    y: 0
    z: 0
  - x: 0
    y: 0
    z: 0
  - x: 0
    y: 0
    z: 0
  - x: 0
    y: 0
    z: 0
  - x: 0
    y: 0
    z: 0
  - x: 0
    y: 0
    z: 0
  - x: 0
    y: 0
    z: 0
  - x: 0
    y: 0
    z: 0
  - x: 0
    y: 0
    z: 0
  - x: 0
    y: 0
    z: 0
  - x: 0
    y: 0
    z: 0
  - x: 0
    y: 0
    z: 0
  - x: 0
    y: 0
    z: 0
  - x: 0
    y: 0
    z: 0
  - x: 0
    y: 0
    z: 0
  - x: 0
    y: 0
    z: 0
  - x: 0
    y: 0
    z: 0
  - x: 0
    y: 0
    z: 0
  - x: 0
    y: 0
    z: 0
  - x: 0
    y: 0
    z: 0
  - x: 0
    y: 0
    z: 0
  - x: 0
    y: 0
    z: 0
  - x: 0
    y: 0
    z: 0
  - x: 0
    y: 0
    z: 0
  - x: 0
    y: 0
    z: 0
  - x: 0
    y: 0
    z: 0
  - x: 0
    y: 0
    z: 0
  - x: 0
    y: 0
    z: 0
  - x: 0
    y: 0
    z: 0
  - x: 0
    y: 0
    z: 0
  - x: 0
    y: 0
    z: 0
  - x: 0
    y: 0
    z: 0
  - x: 0
    y: 0
    z: 0
  - x: 0
    y: 0
    z: 0
  - x: 0
    y: 0
    z: 0
  - x: 0
    y: 0
    z: 0
  - x: 0
    y: 0
    z: 0
  - x: 0
    y: 0
    z: 0
  - x: 0
    y: 0
    z: 0
  - x: 0
    y: 0
    z: 0
  - x: 0
    y: 0
    z: 0
  - x: 0
    y: 0
    z: 0
  - x: 0
    y: 0
    z: 0
  - x: 0
    y: 0
    z: 0
  - x: 0
    y: 0
    z: 0
  - x: 0
    y: 0
    z: 0
  - x: 0
    y: 0
    z: 0
  - x: 0
    y: 0
    z: 0
  - x: 0
    y: 0
    z: 0
  - x: 0
    y: 0
    z: 0
  - x: 0
    y: 0
    z: 0
  - x: 0
    y: 0
    z: 0
  - x: 0
    y: 0
    z: 0
  - x: 0
    y: 0
    z: 0
  - x: 0
    y: 0
    z: 0
  - x: 0
    y: 0
    z: 0
  - x: 0
    y: 0
    z: 0
  - x: 0
    y: 0
    z: 0
  - x: 0
    y: 0
    z: 0
  - x: 0
    y: 0
    z: 0
  - x: 0
    y: 0
    z: 0
  - x: 0
    y: 0
    z: 0
  - x: 0
    y: 0
    z: 0
  - x: 0
    y: 0
    z: 0
  - x: 0
    y: 0
    z: 0
  - x: 0
    y: 0
    z: 0
  - x: 0
    y: 0
    z: 0
  - x: 0
    y: 0
    z: 0
  - x: 0
    y: 0
    z: 0
  - x: 0
    y: 0
    z: 0
  - x: 0
    y: 0
    z: 0
  - x: 0
    y: 0
    z: 0
  - x: 0
    y: 0
    z: 0
  - x: 0
    y: 0
    z: 0
  - x: 0
    y: 0
    z: 0
  - x: 0
    y: 0
    z: 0
  - x: 0
    y: 0
    z: 0
  - x: 0
    y: 0
    z: 0
  - x: 0
    y: 0
    z: 0
  - x: 0
    y: 0
    z: 0
  restPositions:
  - x: 0.37856412
    y: 0
    z: 0
    w: 1
  - x: 0.45640638
    y: 0
    z: 0
    w: 1
  - x: 0.53419185
    y: 0
    z: 0
    w: 1
  - x: 0.6119753
    y: 0
    z: 0
    w: 1
  - x: 0.68976676
    y: 0
    z: 0
    w: 1
  - x: 0.7673158
    y: 0
    z: 0
    w: 1
  - x: 0.8448571
    y: 0
    z: 0
    w: 1
  - x: 0.9224004
    y: 0
    z: 0
    w: 1
  - x: 1
    y: 0
    z: 0
    w: 1
  - x: 0
    y: 0
    z: 0
    w: 0
  - x: 0
    y: 0
    z: 0
    w: 0
  - x: 0
    y: 0
    z: 0
    w: 0
  - x: 0
    y: 0
    z: 0
    w: 0
  - x: 0
    y: 0
    z: 0
    w: 0
  - x: 0
    y: 0
    z: 0
    w: 0
  - x: 0
    y: 0
    z: 0
    w: 0
  - x: 0
    y: 0
    z: 0
    w: 0
  - x: 0
    y: 0
    z: 0
    w: 0
  - x: 0
    y: 0
    z: 0
    w: 0
  - x: 0
    y: 0
    z: 0
    w: 0
  - x: 0
    y: 0
    z: 0
    w: 0
  - x: 0
    y: 0
    z: 0
    w: 0
  - x: 0
    y: 0
    z: 0
    w: 0
  - x: 0
    y: 0
    z: 0
    w: 0
  - x: 0
    y: 0
    z: 0
    w: 0
  - x: 0
    y: 0
    z: 0
    w: 0
  - x: 0
    y: 0
    z: 0
    w: 0
  - x: 0
    y: 0
    z: 0
    w: 0
  - x: 0
    y: 0
    z: 0
    w: 0
  - x: 0
    y: 0
    z: 0
    w: 0
  - x: 0
    y: 0
    z: 0
    w: 0
  - x: 0
    y: 0
    z: 0
    w: 0
  - x: 0
    y: 0
    z: 0
    w: 0
  - x: 0
    y: 0
    z: 0
    w: 0
  - x: 0
    y: 0
    z: 0
    w: 0
  - x: 0
    y: 0
    z: 0
    w: 0
  - x: 0
    y: 0
    z: 0
    w: 0
  - x: 0
    y: 0
    z: 0
    w: 0
  - x: 0
    y: 0
    z: 0
    w: 0
  - x: 0
    y: 0
    z: 0
    w: 0
  - x: 0
    y: 0
    z: 0
    w: 0
  - x: 0
    y: 0
    z: 0
    w: 0
  - x: 0
    y: 0
    z: 0
    w: 0
  - x: 0
    y: 0
    z: 0
    w: 0
  - x: 0
    y: 0
    z: 0
    w: 0
  - x: 0
    y: 0
    z: 0
    w: 0
  - x: 0
    y: 0
    z: 0
    w: 0
  - x: 0
    y: 0
    z: 0
    w: 0
  - x: 0
    y: 0
    z: 0
    w: 0
  - x: 0
    y: 0
    z: 0
    w: 0
  - x: 0
    y: 0
    z: 0
    w: 0
  - x: 0
    y: 0
    z: 0
    w: 0
  - x: 0
    y: 0
    z: 0
    w: 0
  - x: 0
    y: 0
    z: 0
    w: 0
  - x: 0
    y: 0
    z: 0
    w: 0
  - x: 0
    y: 0
    z: 0
    w: 0
  - x: 0
    y: 0
    z: 0
    w: 0
  - x: 0
    y: 0
    z: 0
    w: 0
  - x: 0
    y: 0
    z: 0
    w: 0
  - x: 0
    y: 0
    z: 0
    w: 0
  - x: 0
    y: 0
    z: 0
    w: 0
  - x: 0
    y: 0
    z: 0
    w: 0
  - x: 0
    y: 0
    z: 0
    w: 0
  - x: 0
    y: 0
    z: 0
    w: 0
  - x: 0
    y: 0
    z: 0
    w: 0
  - x: 0
    y: 0
    z: 0
    w: 0
  - x: 0
    y: 0
    z: 0
    w: 0
  - x: 0
    y: 0
    z: 0
    w: 0
  - x: 0
    y: 0
    z: 0
    w: 0
  - x: 0
    y: 0
    z: 0
    w: 0
  - x: 0
    y: 0
    z: 0
    w: 0
  - x: 0
    y: 0
    z: 0
    w: 0
  - x: 0
    y: 0
    z: 0
    w: 0
  - x: 0
    y: 0
    z: 0
    w: 0
  - x: 0
    y: 0
    z: 0
    w: 0
  - x: 0
    y: 0
    z: 0
    w: 0
  - x: 0
    y: 0
    z: 0
    w: 0
  - x: 0
    y: 0
    z: 0
    w: 0
  - x: 0
    y: 0
    z: 0
    w: 0
  - x: 0
    y: 0
    z: 0
    w: 0
  - x: 0
    y: 0
    z: 0
    w: 0
  - x: 0
    y: 0
    z: 0
    w: 0
  - x: 0
    y: 0
    z: 0
    w: 0
  - x: 0
    y: 0
    z: 0
    w: 0
  - x: 0
    y: 0
    z: 0
    w: 0
  - x: 0
    y: 0
    z: 0
    w: 0
  - x: 0
    y: 0
    z: 0
    w: 0
  - x: 0
    y: 0
    z: 0
    w: 0
  - x: 0
    y: 0
    z: 0
    w: 0
  - x: 0
    y: 0
    z: 0
    w: 0
  - x: 0
    y: 0
    z: 0
    w: 0
  - x: 0
    y: 0
    z: 0
    w: 0
  - x: 0
    y: 0
    z: 0
    w: 0
  - x: 0
    y: 0
    z: 0
    w: 0
  - x: 0
    y: 0
    z: 0
    w: 0
  - x: 0
    y: 0
    z: 0
    w: 0
  - x: 0
    y: 0
    z: 0
    w: 0
  - x: 0
    y: 0
    z: 0
    w: 0
  - x: 0
    y: 0
    z: 0
    w: 0
  - x: 0
    y: 0
    z: 0
    w: 0
  - x: 0
    y: 0
    z: 0
    w: 0
  - x: 0
    y: 0
    z: 0
    w: 0
  - x: 0
    y: 0
    z: 0
    w: 0
  - x: 0
    y: 0
    z: 0
    w: 0
  - x: 0
    y: 0
    z: 0
    w: 0
  - x: 0
    y: 0
    z: 0
    w: 0
  - x: 0
    y: 0
    z: 0
    w: 0
  - x: 0
    y: 0
    z: 0
    w: 0
  - x: 0
    y: 0
    z: 0
    w: 0
  orientations: []
  restOrientations: []
  velocities:
  - x: 0
    y: 0
    z: 0
  - x: 0
    y: 0
    z: 0
  - x: 0
    y: 0
    z: 0
  - x: 0
    y: 0
    z: 0
  - x: 0
    y: 0
    z: 0
  - x: 0
    y: 0
    z: 0
  - x: 0
    y: 0
    z: 0
  - x: 0
    y: 0
    z: 0
  - x: 0
    y: 0
    z: 0
  - x: 0
    y: 0
    z: 0
  - x: 0
    y: 0
    z: 0
  - x: 0
    y: 0
    z: 0
  - x: 0
    y: 0
    z: 0
  - x: 0
    y: 0
    z: 0
  - x: 0
    y: 0
    z: 0
  - x: 0
    y: 0
    z: 0
  - x: 0
    y: 0
    z: 0
  - x: 0
    y: 0
    z: 0
  - x: 0
    y: 0
    z: 0
  - x: 0
    y: 0
    z: 0
  - x: 0
    y: 0
    z: 0
  - x: 0
    y: 0
    z: 0
  - x: 0
    y: 0
    z: 0
  - x: 0
    y: 0
    z: 0
  - x: 0
    y: 0
    z: 0
  - x: 0
    y: 0
    z: 0
  - x: 0
    y: 0
    z: 0
  - x: 0
    y: 0
    z: 0
  - x: 0
    y: 0
    z: 0
  - x: 0
    y: 0
    z: 0
  - x: 0
    y: 0
    z: 0
  - x: 0
    y: 0
    z: 0
  - x: 0
    y: 0
    z: 0
  - x: 0
    y: 0
    z: 0
  - x: 0
    y: 0
    z: 0
  - x: 0
    y: 0
    z: 0
  - x: 0
    y: 0
    z: 0
  - x: 0
    y: 0
    z: 0
  - x: 0
    y: 0
    z: 0
  - x: 0
    y: 0
    z: 0
  - x: 0
    y: 0
    z: 0
  - x: 0
    y: 0
    z: 0
  - x: 0
    y: 0
    z: 0
  - x: 0
    y: 0
    z: 0
  - x: 0
    y: 0
    z: 0
  - x: 0
    y: 0
    z: 0
  - x: 0
    y: 0
    z: 0
  - x: 0
    y: 0
    z: 0
  - x: 0
    y: 0
    z: 0
  - x: 0
    y: 0
    z: 0
  - x: 0
    y: 0
    z: 0
  - x: 0
    y: 0
    z: 0
  - x: 0
    y: 0
    z: 0
  - x: 0
    y: 0
    z: 0
  - x: 0
    y: 0
    z: 0
  - x: 0
    y: 0
    z: 0
  - x: 0
    y: 0
    z: 0
  - x: 0
    y: 0
    z: 0
  - x: 0
    y: 0
    z: 0
  - x: 0
    y: 0
    z: 0
  - x: 0
    y: 0
    z: 0
  - x: 0
    y: 0
    z: 0
  - x: 0
    y: 0
    z: 0
  - x: 0
    y: 0
    z: 0
  - x: 0
    y: 0
    z: 0
  - x: 0
    y: 0
    z: 0
  - x: 0
    y: 0
    z: 0
  - x: 0
    y: 0
    z: 0
  - x: 0
    y: 0
    z: 0
  - x: 0
    y: 0
    z: 0
  - x: 0
    y: 0
    z: 0
  - x: 0
    y: 0
    z: 0
  - x: 0
    y: 0
    z: 0
  - x: 0
    y: 0
    z: 0
  - x: 0
    y: 0
    z: 0
  - x: 0
    y: 0
    z: 0
  - x: 0
    y: 0
    z: 0
  - x: 0
    y: 0
    z: 0
  - x: 0
    y: 0
    z: 0
  - x: 0
    y: 0
    z: 0
  - x: 0
    y: 0
    z: 0
  - x: 0
    y: 0
    z: 0
  - x: 0
    y: 0
    z: 0
  - x: 0
    y: 0
    z: 0
  - x: 0
    y: 0
    z: 0
  - x: 0
    y: 0
    z: 0
  - x: 0
    y: 0
    z: 0
  - x: 0
    y: 0
    z: 0
  - x: 0
    y: 0
    z: 0
  - x: 0
    y: 0
    z: 0
  - x: 0
    y: 0
    z: 0
  - x: 0
    y: 0
    z: 0
  - x: 0
    y: 0
    z: 0
  - x: 0
    y: 0
    z: 0
  - x: 0
    y: 0
    z: 0
  - x: 0
    y: 0
    z: 0
  - x: 0
    y: 0
    z: 0
  - x: 0
    y: 0
    z: 0
  - x: 0
    y: 0
    z: 0
  - x: 0
    y: 0
    z: 0
  - x: 0
    y: 0
    z: 0
  - x: 0
    y: 0
    z: 0
  - x: 0
    y: 0
    z: 0
  - x: 0
    y: 0
    z: 0
  - x: 0
    y: 0
    z: 0
  - x: 0
    y: 0
    z: 0
  - x: 0
    y: 0
    z: 0
  - x: 0
    y: 0
    z: 0
  - x: 0
    y: 0
    z: 0
  angularVelocities: []
  invMasses:
  - 10
  - 9.999999
  - 9.999999
  - 10
  - 10
  - 10
  - 10
  - 10
  - 10
  - 0
  - 0
  - 0
  - 0
  - 0
  - 0
  - 0
  - 0
  - 0
  - 0
  - 0
  - 0
  - 0
  - 0
  - 0
  - 0
  - 0
  - 0
  - 0
  - 0
  - 0
  - 0
  - 0
  - 0
  - 0
  - 0
  - 0
  - 0
  - 0
  - 0
  - 0
  - 0
  - 0
  - 0
  - 0
  - 0
  - 0
  - 0
  - 0
  - 0
  - 0
  - 0
  - 0
  - 0
  - 0
  - 0
  - 0
  - 0
  - 0
  - 0
  - 0
  - 0
  - 0
  - 0
  - 0
  - 0
  - 0
  - 0
  - 0
  - 0
  - 0
  - 0
  - 0
  - 0
  - 0
  - 0
  - 0
  - 0
  - 0
  - 0
  - 0
  - 0
  - 0
  - 0
  - 0
  - 0
  - 0
  - 0
  - 0
  - 0
  - 0
  - 0
  - 0
  - 0
  - 0
  - 0
  - 0
  - 0
  - 0
  - 0
  - 0
  - 0
  - 0
  - 0
  - 0
  - 0
  - 0
  - 0
  - 0
  - 0
  invRotationalMasses: []
  phases: 01000000010000000100000001000000010000000100000001000000010000000100000000000000000000000000000000000000000000000000000000000000000000000000000000000000000000000000000000000000000000000000000000000000000000000000000000000000000000000000000000000000000000000000000000000000000000000000000000000000000000000000000000000000000000000000000000000000000000000000000000000000000000000000000000000000000000000000000000000000000000000000000000000000000000000000000000000000000000000000000000000000000000000000000000000000000000000000000000000000000000000000000000000000000000000000000000000000000000000000000000000000000000000000000000000000000000000000000000000000000000000000000000000000000000000000000000000000000000000000000000000000000000000000000000000000000000000000000000000000000000000000000000000000000000000000000000000000000000000000000000000000000000000000000000000000
  principalRadii:
  - x: 0.1
    y: 0.1
    z: 0.1
  - x: 0.1
    y: 0.1
    z: 0.1
  - x: 0.10000002
    y: 0.10000002
    z: 0.10000002
  - x: 0.1
    y: 0.1
    z: 0.1
  - x: 0.1
    y: 0.1
    z: 0.1
  - x: 0.1
    y: 0.1
    z: 0.1
  - x: 0.1
    y: 0.1
    z: 0.1
  - x: 0.1
    y: 0.1
    z: 0.1
  - x: 0.1
    y: 0.1
    z: 0.1
  - x: 0
    y: 0
    z: 0
  - x: 0
    y: 0
    z: 0
  - x: 0
    y: 0
    z: 0
  - x: 0
    y: 0
    z: 0
  - x: 0
    y: 0
    z: 0
  - x: 0
    y: 0
    z: 0
  - x: 0
    y: 0
    z: 0
  - x: 0
    y: 0
    z: 0
  - x: 0
    y: 0
    z: 0
  - x: 0
    y: 0
    z: 0
  - x: 0
    y: 0
    z: 0
  - x: 0
    y: 0
    z: 0
  - x: 0
    y: 0
    z: 0
  - x: 0
    y: 0
    z: 0
  - x: 0
    y: 0
    z: 0
  - x: 0
    y: 0
    z: 0
  - x: 0
    y: 0
    z: 0
  - x: 0
    y: 0
    z: 0
  - x: 0
    y: 0
    z: 0
  - x: 0
    y: 0
    z: 0
  - x: 0
    y: 0
    z: 0
  - x: 0
    y: 0
    z: 0
  - x: 0
    y: 0
    z: 0
  - x: 0
    y: 0
    z: 0
  - x: 0
    y: 0
    z: 0
  - x: 0
    y: 0
    z: 0
  - x: 0
    y: 0
    z: 0
  - x: 0
    y: 0
    z: 0
  - x: 0
    y: 0
    z: 0
  - x: 0
    y: 0
    z: 0
  - x: 0
    y: 0
    z: 0
  - x: 0
    y: 0
    z: 0
  - x: 0
    y: 0
    z: 0
  - x: 0
    y: 0
    z: 0
  - x: 0
    y: 0
    z: 0
  - x: 0
    y: 0
    z: 0
  - x: 0
    y: 0
    z: 0
  - x: 0
    y: 0
    z: 0
  - x: 0
    y: 0
    z: 0
  - x: 0
    y: 0
    z: 0
  - x: 0
    y: 0
    z: 0
  - x: 0
    y: 0
    z: 0
  - x: 0
    y: 0
    z: 0
  - x: 0
    y: 0
    z: 0
  - x: 0
    y: 0
    z: 0
  - x: 0
    y: 0
    z: 0
  - x: 0
    y: 0
    z: 0
  - x: 0
    y: 0
    z: 0
  - x: 0
    y: 0
    z: 0
  - x: 0
    y: 0
    z: 0
  - x: 0
    y: 0
    z: 0
  - x: 0
    y: 0
    z: 0
  - x: 0
    y: 0
    z: 0
  - x: 0
    y: 0
    z: 0
  - x: 0
    y: 0
    z: 0
  - x: 0
    y: 0
    z: 0
  - x: 0
    y: 0
    z: 0
  - x: 0
    y: 0
    z: 0
  - x: 0
    y: 0
    z: 0
  - x: 0
    y: 0
    z: 0
  - x: 0
    y: 0
    z: 0
  - x: 0
    y: 0
    z: 0
  - x: 0
    y: 0
    z: 0
  - x: 0
    y: 0
    z: 0
  - x: 0
    y: 0
    z: 0
  - x: 0
    y: 0
    z: 0
  - x: 0
    y: 0
    z: 0
  - x: 0
    y: 0
    z: 0
  - x: 0
    y: 0
    z: 0
  - x: 0
    y: 0
    z: 0
  - x: 0
    y: 0
    z: 0
  - x: 0
    y: 0
    z: 0
  - x: 0
    y: 0
    z: 0
  - x: 0
    y: 0
    z: 0
  - x: 0
    y: 0
    z: 0
  - x: 0
    y: 0
    z: 0
  - x: 0
    y: 0
    z: 0
  - x: 0
    y: 0
    z: 0
  - x: 0
    y: 0
    z: 0
  - x: 0
    y: 0
    z: 0
  - x: 0
    y: 0
    z: 0
  - x: 0
    y: 0
    z: 0
  - x: 0
    y: 0
    z: 0
  - x: 0
    y: 0
    z: 0
  - x: 0
    y: 0
    z: 0
  - x: 0
    y: 0
    z: 0
  - x: 0
    y: 0
    z: 0
  - x: 0
    y: 0
    z: 0
  - x: 0
    y: 0
    z: 0
  - x: 0
    y: 0
    z: 0
  - x: 0
    y: 0
    z: 0
  - x: 0
    y: 0
    z: 0
  - x: 0
    y: 0
    z: 0
  - x: 0
    y: 0
    z: 0
  - x: 0
    y: 0
    z: 0
  - x: 0
    y: 0
    z: 0
  - x: 0
    y: 0
    z: 0
  - x: 0
    y: 0
    z: 0
  - x: 0
    y: 0
    z: 0
  - x: 0
    y: 0
    z: 0
  colors:
  - r: 1
    g: 1
    b: 1
    a: 1
  - r: 1
    g: 1
    b: 1
    a: 1
  - r: 1.0000001
    g: 1.0000001
    b: 1.0000001
    a: 1.0000001
  - r: 1
    g: 1
    b: 1
    a: 1
  - r: 1
    g: 1
    b: 1
    a: 1
  - r: 1
    g: 1
    b: 1
    a: 1
  - r: 1
    g: 1
    b: 1
    a: 1
  - r: 1
    g: 1
    b: 1
    a: 1
  - r: 1
    g: 1
    b: 1
    a: 1
  - r: 0
    g: 0
    b: 0
    a: 0
  - r: 0
    g: 0
    b: 0
    a: 0
  - r: 0
    g: 0
    b: 0
    a: 0
  - r: 0
    g: 0
    b: 0
    a: 0
  - r: 0
    g: 0
    b: 0
    a: 0
  - r: 0
    g: 0
    b: 0
    a: 0
  - r: 0
    g: 0
    b: 0
    a: 0
  - r: 0
    g: 0
    b: 0
    a: 0
  - r: 0
    g: 0
    b: 0
    a: 0
  - r: 0
    g: 0
    b: 0
    a: 0
  - r: 0
    g: 0
    b: 0
    a: 0
  - r: 0
    g: 0
    b: 0
    a: 0
  - r: 0
    g: 0
    b: 0
    a: 0
  - r: 0
    g: 0
    b: 0
    a: 0
  - r: 0
    g: 0
    b: 0
    a: 0
  - r: 0
    g: 0
    b: 0
    a: 0
  - r: 0
    g: 0
    b: 0
    a: 0
  - r: 0
    g: 0
    b: 0
    a: 0
  - r: 0
    g: 0
    b: 0
    a: 0
  - r: 0
    g: 0
    b: 0
    a: 0
  - r: 0
    g: 0
    b: 0
    a: 0
  - r: 0
    g: 0
    b: 0
    a: 0
  - r: 0
    g: 0
    b: 0
    a: 0
  - r: 0
    g: 0
    b: 0
    a: 0
  - r: 0
    g: 0
    b: 0
    a: 0
  - r: 0
    g: 0
    b: 0
    a: 0
  - r: 0
    g: 0
    b: 0
    a: 0
  - r: 0
    g: 0
    b: 0
    a: 0
  - r: 0
    g: 0
    b: 0
    a: 0
  - r: 0
    g: 0
    b: 0
    a: 0
  - r: 0
    g: 0
    b: 0
    a: 0
  - r: 0
    g: 0
    b: 0
    a: 0
  - r: 0
    g: 0
    b: 0
    a: 0
  - r: 0
    g: 0
    b: 0
    a: 0
  - r: 0
    g: 0
    b: 0
    a: 0
  - r: 0
    g: 0
    b: 0
    a: 0
  - r: 0
    g: 0
    b: 0
    a: 0
  - r: 0
    g: 0
    b: 0
    a: 0
  - r: 0
    g: 0
    b: 0
    a: 0
  - r: 0
    g: 0
    b: 0
    a: 0
  - r: 0
    g: 0
    b: 0
    a: 0
  - r: 0
    g: 0
    b: 0
    a: 0
  - r: 0
    g: 0
    b: 0
    a: 0
  - r: 0
    g: 0
    b: 0
    a: 0
  - r: 0
    g: 0
    b: 0
    a: 0
  - r: 0
    g: 0
    b: 0
    a: 0
  - r: 0
    g: 0
    b: 0
    a: 0
  - r: 0
    g: 0
    b: 0
    a: 0
  - r: 0
    g: 0
    b: 0
    a: 0
  - r: 0
    g: 0
    b: 0
    a: 0
  - r: 0
    g: 0
    b: 0
    a: 0
  - r: 0
    g: 0
    b: 0
    a: 0
  - r: 0
    g: 0
    b: 0
    a: 0
  - r: 0
    g: 0
    b: 0
    a: 0
  - r: 0
    g: 0
    b: 0
    a: 0
  - r: 0
    g: 0
    b: 0
    a: 0
  - r: 0
    g: 0
    b: 0
    a: 0
  - r: 0
    g: 0
    b: 0
    a: 0
  - r: 0
    g: 0
    b: 0
    a: 0
  - r: 0
    g: 0
    b: 0
    a: 0
  - r: 0
    g: 0
    b: 0
    a: 0
  - r: 0
    g: 0
    b: 0
    a: 0
  - r: 0
    g: 0
    b: 0
    a: 0
  - r: 0
    g: 0
    b: 0
    a: 0
  - r: 0
    g: 0
    b: 0
    a: 0
  - r: 0
    g: 0
    b: 0
    a: 0
  - r: 0
    g: 0
    b: 0
    a: 0
  - r: 0
    g: 0
    b: 0
    a: 0
  - r: 0
    g: 0
    b: 0
    a: 0
  - r: 0
    g: 0
    b: 0
    a: 0
  - r: 0
    g: 0
    b: 0
    a: 0
  - r: 0
    g: 0
    b: 0
    a: 0
  - r: 0
    g: 0
    b: 0
    a: 0
  - r: 0
    g: 0
    b: 0
    a: 0
  - r: 0
    g: 0
    b: 0
    a: 0
  - r: 0
    g: 0
    b: 0
    a: 0
  - r: 0
    g: 0
    b: 0
    a: 0
  - r: 0
    g: 0
    b: 0
    a: 0
  - r: 0
    g: 0
    b: 0
    a: 0
  - r: 0
    g: 0
    b: 0
    a: 0
  - r: 0
    g: 0
    b: 0
    a: 0
  - r: 0
    g: 0
    b: 0
    a: 0
  - r: 0
    g: 0
    b: 0
    a: 0
  - r: 0
    g: 0
    b: 0
    a: 0
  - r: 0
    g: 0
    b: 0
    a: 0
  - r: 0
    g: 0
    b: 0
    a: 0
  - r: 0
    g: 0
    b: 0
    a: 0
  - r: 0
    g: 0
    b: 0
    a: 0
  - r: 0
    g: 0
    b: 0
    a: 0
  - r: 0
    g: 0
    b: 0
    a: 0
  - r: 0
    g: 0
    b: 0
    a: 0
  - r: 0
    g: 0
    b: 0
    a: 0
  - r: 0
    g: 0
    b: 0
    a: 0
  - r: 0
    g: 0
    b: 0
    a: 0
  - r: 0
    g: 0
    b: 0
    a: 0
  - r: 0
    g: 0
    b: 0
    a: 0
  - r: 0
    g: 0
    b: 0
    a: 0
  - r: 0
    g: 0
    b: 0
    a: 0
  - r: 0
    g: 0
    b: 0
    a: 0
  - r: 0
    g: 0
    b: 0
    a: 0
  distanceConstraintsData:
    batches:
    - m_IDs: 000000000100000002000000030000000400000005000000060000000700000008000000090000000a0000000b0000000c0000000d0000000e0000000f000000100000001100000012000000130000001400000015000000160000001700000018000000190000001a0000001b0000001c0000001d0000001e0000001f000000200000002100000022000000230000002400000025000000260000002700000028000000290000002a0000002b0000002c0000002d0000002e0000002f000000300000003100000032000000330000003400000035000000
      m_IDToIndex: 000000000100000002000000030000000400000005000000060000000700000008000000090000000a0000000b0000000c0000000d0000000e0000000f000000100000001100000012000000130000001400000015000000160000001700000018000000190000001a0000001b0000001c0000001d0000001e0000001f000000200000002100000022000000230000002400000025000000260000002700000028000000290000002a0000002b0000002c0000002d0000002e0000002f000000300000003100000032000000330000003400000035000000
      m_ConstraintCount: 54
      m_ActiveConstraintCount: 4
      m_InitialActiveConstraintCount: 4
      particleIndices:
        serializedContents: 000000000100000002000000030000000400000005000000060000000700000000000000000000000000000000000000000000000000000000000000000000000000000000000000000000000000000000000000000000000000000000000000000000000000000000000000000000000000000000000000000000000000000000000000000000000000000000000000000000000000000000000000000000000000000000000000000000000000000000000000000000000000000000000000000000000000000000000000000000000000000000000000000000000000000000000000000000000000000000000000000000000000000000000000000000000000000000000000000000000000000000000000000000000000000000000000000000000000000000000000000000000000000000000000000000000000000000000000000000000000000000000000000000000000000000000000000000000000000000000000000000000000000000000000000000000000000000000000000000000000000000000000000000000000000000000000000000000000000000000000000000000000000000000000
      lambdas:
        serializedContents: []
      restLengths:
        serializedContents:
        - 0.077842265
        - 0.077783465
        - 0.07754904
        - 0.07754332
        - 0
        - 0
        - 0
        - 0
        - 0
        - 0
        - 0
        - 0
        - 0
        - 0
        - 0
        - 0
        - 0
        - 0
        - 0
        - 0
        - 0
        - 0
        - 0
        - 0
        - 0
        - 0
        - 0
        - 0
        - 0
        - 0
        - 0
        - 0
        - 0
        - 0
        - 0
        - 0
        - 0
        - 0
        - 0
        - 0
        - 0
        - 0
        - 0
        - 0
        - 0
        - 0
        - 0
        - 0
        - 0
        - 0
        - 0
        - 0
        - 0
        - 0
      stiffnesses:
        serializedContents:
        - x: 0
          y: 0
        - x: 0
          y: 0
        - x: 0
          y: 0
        - x: 0
          y: 0
        - x: 0
          y: 0
        - x: 0
          y: 0
        - x: 0
          y: 0
        - x: 0
          y: 0
        - x: 0
          y: 0
        - x: 0
          y: 0
        - x: 0
          y: 0
        - x: 0
          y: 0
        - x: 0
          y: 0
        - x: 0
          y: 0
        - x: 0
          y: 0
        - x: 0
          y: 0
        - x: 0
          y: 0
        - x: 0
          y: 0
        - x: 0
          y: 0
        - x: 0
          y: 0
        - x: 0
          y: 0
        - x: 0
          y: 0
        - x: 0
          y: 0
        - x: 0
          y: 0
        - x: 0
          y: 0
        - x: 0
          y: 0
        - x: 0
          y: 0
        - x: 0
          y: 0
        - x: 0
          y: 0
        - x: 0
          y: 0
        - x: 0
          y: 0
        - x: 0
          y: 0
        - x: 0
          y: 0
        - x: 0
          y: 0
        - x: 0
          y: 0
        - x: 0
          y: 0
        - x: 0
          y: 0
        - x: 0
          y: 0
        - x: 0
          y: 0
        - x: 0
          y: 0
        - x: 0
          y: 0
        - x: 0
          y: 0
        - x: 0
          y: 0
        - x: 0
          y: 0
        - x: 0
          y: 0
        - x: 0
          y: 0
        - x: 0
          y: 0
        - x: 0
          y: 0
        - x: 0
          y: 0
        - x: 0
          y: 0
        - x: 0
          y: 0
        - x: 0
          y: 0
        - x: 0
          y: 0
        - x: 0
          y: 0
    - m_IDs: 000000000100000002000000030000000400000005000000060000000700000008000000090000000a0000000b0000000c0000000d0000000e0000000f000000100000001100000012000000130000001400000015000000160000001700000018000000190000001a0000001b0000001c0000001d0000001e0000001f000000200000002100000022000000230000002400000025000000260000002700000028000000290000002a0000002b0000002c0000002d0000002e0000002f000000300000003100000032000000330000003400000035000000
      m_IDToIndex: 000000000100000002000000030000000400000005000000060000000700000008000000090000000a0000000b0000000c0000000d0000000e0000000f000000100000001100000012000000130000001400000015000000160000001700000018000000190000001a0000001b0000001c0000001d0000001e0000001f000000200000002100000022000000230000002400000025000000260000002700000028000000290000002a0000002b0000002c0000002d0000002e0000002f000000300000003100000032000000330000003400000035000000
      m_ConstraintCount: 54
      m_ActiveConstraintCount: 4
      m_InitialActiveConstraintCount: 4
      particleIndices:
        serializedContents: 010000000200000003000000040000000500000006000000070000000800000000000000000000000000000000000000000000000000000000000000000000000000000000000000000000000000000000000000000000000000000000000000000000000000000000000000000000000000000000000000000000000000000000000000000000000000000000000000000000000000000000000000000000000000000000000000000000000000000000000000000000000000000000000000000000000000000000000000000000000000000000000000000000000000000000000000000000000000000000000000000000000000000000000000000000000000000000000000000000000000000000000000000000000000000000000000000000000000000000000000000000000000000000000000000000000000000000000000000000000000000000000000000000000000000000000000000000000000000000000000000000000000000000000000000000000000000000000000000000000000000000000000000000000000000000000000000000000000000000000000000000000000000000000000
      lambdas:
        serializedContents: []
      restLengths:
        serializedContents:
        - 0.07778546
        - 0.07779145
        - 0.07754129
        - 0.077599585
        - 0
        - 0
        - 0
        - 0
        - 0
        - 0
        - 0
        - 0
        - 0
        - 0
        - 0
        - 0
        - 0
        - 0
        - 0
        - 0
        - 0
        - 0
        - 0
        - 0
        - 0
        - 0
        - 0
        - 0
        - 0
        - 0
        - 0
        - 0
        - 0
        - 0
        - 0
        - 0
        - 0
        - 0
        - 0
        - 0
        - 0
        - 0
        - 0
        - 0
        - 0
        - 0
        - 0
        - 0
        - 0
        - 0
        - 0
        - 0
        - 0
        - 0
      stiffnesses:
        serializedContents:
        - x: 0
          y: 0
        - x: 0
          y: 0
        - x: 0
          y: 0
        - x: 0
          y: 0
        - x: 0
          y: 0
        - x: 0
          y: 0
        - x: 0
          y: 0
        - x: 0
          y: 0
        - x: 0
          y: 0
        - x: 0
          y: 0
        - x: 0
          y: 0
        - x: 0
          y: 0
        - x: 0
          y: 0
        - x: 0
          y: 0
        - x: 0
          y: 0
        - x: 0
          y: 0
        - x: 0
          y: 0
        - x: 0
          y: 0
        - x: 0
          y: 0
        - x: 0
          y: 0
        - x: 0
          y: 0
        - x: 0
          y: 0
        - x: 0
          y: 0
        - x: 0
          y: 0
        - x: 0
          y: 0
        - x: 0
          y: 0
        - x: 0
          y: 0
        - x: 0
          y: 0
        - x: 0
          y: 0
        - x: 0
          y: 0
        - x: 0
          y: 0
        - x: 0
          y: 0
        - x: 0
          y: 0
        - x: 0
          y: 0
        - x: 0
          y: 0
        - x: 0
          y: 0
        - x: 0
          y: 0
        - x: 0
          y: 0
        - x: 0
          y: 0
        - x: 0
          y: 0
        - x: 0
          y: 0
        - x: 0
          y: 0
        - x: 0
          y: 0
        - x: 0
          y: 0
        - x: 0
          y: 0
        - x: 0
          y: 0
        - x: 0
          y: 0
        - x: 0
          y: 0
        - x: 0
          y: 0
        - x: 0
          y: 0
        - x: 0
          y: 0
        - x: 0
          y: 0
        - x: 0
          y: 0
        - x: 0
          y: 0
  bendConstraintsData:
    batches:
    - m_IDs: 000000000100000002000000030000000400000005000000060000000700000008000000090000000a0000000b0000000c0000000d0000000e0000000f000000100000001100000012000000130000001400000015000000160000001700000018000000190000001a0000001b0000001c0000001d0000001e0000001f00000020000000210000002200000023000000
      m_IDToIndex: 000000000100000002000000030000000400000005000000060000000700000008000000090000000a0000000b0000000c0000000d0000000e0000000f000000100000001100000012000000130000001400000015000000160000001700000018000000190000001a0000001b0000001c0000001d0000001e0000001f00000020000000210000002200000023000000
      m_ConstraintCount: 36
      m_ActiveConstraintCount: 3
      m_InitialActiveConstraintCount: 3
      particleIndices:
        serializedContents: 000000000200000001000000030000000500000004000000060000000800000007000000090000000b0000000a0000000c0000000e0000000d0000000f0000001100000010000000120000001400000013000000150000001700000016000000180000001a000000190000001b0000001d0000001c0000001e000000200000001f0000002100000023000000220000002400000026000000250000002700000029000000280000002a0000002c0000002b0000002d0000002f0000002e000000300000003200000031000000330000003500000034000000360000003800000037000000390000003b0000003a0000003c0000003e0000003d0000003f0000004100000040000000420000004400000043000000450000004700000046000000480000004a000000490000004b0000004d0000004c0000004e000000500000004f0000005100000053000000520000005400000056000000550000005700000059000000580000005a0000005c0000005b0000005d0000005f0000005e000000600000006200000061000000630000006500000064000000660000006800000067000000690000006b0000006a000000
      lambdas:
        serializedContents: []
      restBends:
        serializedContents:
        - 1.8954277E-05
        - 8.0764294E-05
        - 1.8715858E-05
        - 0
        - 0
        - 0
        - 0
        - 0
        - 0
        - 0
        - 0
        - 0
        - 0
        - 0
        - 0
        - 0
        - 0
        - 0
        - 0
        - 0
        - 0
        - 0
        - 0
        - 0
        - 0
        - 0
        - 0
        - 0
        - 0
        - 0
        - 0
        - 0
        - 0
        - 0
        - 0
        - 0
      bendingStiffnesses:
        serializedContents:
        - x: 0
          y: 0
        - x: 0
          y: 0
        - x: 0
          y: 0
        - x: 0
          y: 0
        - x: 0
          y: 0
        - x: 0
          y: 0
        - x: 0
          y: 0
        - x: 0
          y: 0
        - x: 0
          y: 0
        - x: 0
          y: 0
        - x: 0
          y: 0
        - x: 0
          y: 0
        - x: 0
          y: 0
        - x: 0
          y: 0
        - x: 0
          y: 0
        - x: 0
          y: 0
        - x: 0
          y: 0
        - x: 0
          y: 0
        - x: 0
          y: 0
        - x: 0
          y: 0
        - x: 0
          y: 0
        - x: 0
          y: 0
        - x: 0
          y: 0
        - x: 0
          y: 0
        - x: 0
          y: 0
        - x: 0
          y: 0
        - x: 0
          y: 0
        - x: 0
          y: 0
        - x: 0
          y: 0
        - x: 0
          y: 0
        - x: 0
          y: 0
        - x: 0
          y: 0
        - x: 0
          y: 0
        - x: 0
          y: 0
        - x: 0
          y: 0
        - x: 0
          y: 0
    - m_IDs: 000000000100000002000000030000000400000005000000060000000700000008000000090000000a0000000b0000000c0000000d0000000e0000000f000000100000001100000012000000130000001400000015000000160000001700000018000000190000001a0000001b0000001c0000001d0000001e0000001f00000020000000210000002200000023000000
      m_IDToIndex: 000000000100000002000000030000000400000005000000060000000700000008000000090000000a0000000b0000000c0000000d0000000e0000000f000000100000001100000012000000130000001400000015000000160000001700000018000000190000001a0000001b0000001c0000001d0000001e0000001f00000020000000210000002200000023000000
      m_ConstraintCount: 36
      m_ActiveConstraintCount: 2
      m_InitialActiveConstraintCount: 2
      particleIndices:
        serializedContents: 0100000003000000020000000400000006000000050000000700000009000000080000000a0000000c0000000b0000000d0000000f0000000e000000100000001200000011000000130000001500000014000000160000001800000017000000190000001b0000001a0000001c0000001e0000001d0000001f0000002100000020000000220000002400000023000000250000002700000026000000280000002a000000290000002b0000002d0000002c0000002e000000300000002f0000003100000033000000320000003400000036000000350000003700000039000000380000003a0000003c0000003b0000003d0000003f0000003e000000400000004200000041000000430000004500000044000000460000004800000047000000490000004b0000004a0000004c0000004e0000004d0000004f0000005100000050000000520000005400000053000000550000005700000056000000580000005a000000590000005b0000005d0000005c0000005e000000600000005f0000006100000063000000620000006400000066000000650000006700000069000000680000006a0000006c0000006b000000
      lambdas:
        serializedContents: []
      restBends:
        serializedContents:
        - 6.556511E-07
        - 2.5629997E-06
        - 0.35919982
        - 0
        - 0
        - 0
        - 0
        - 0
        - 0
        - 0
        - 0
        - 0
        - 0
        - 0
        - 0
        - 0
        - 0
        - 0
        - 0
        - 0
        - 0
        - 0
        - 0
        - 0
        - 0
        - 0
        - 0
        - 0
        - 0
        - 0
        - 0
        - 0
        - 0
        - 0
        - 0
        - 0
      bendingStiffnesses:
        serializedContents:
        - x: 0
          y: 0
        - x: 0
          y: 0
        - x: 0
          y: 0
        - x: 0
          y: 0
        - x: 0
          y: 0
        - x: 0
          y: 0
        - x: 0
          y: 0
        - x: 0
          y: 0
        - x: 0
          y: 0
        - x: 0
          y: 0
        - x: 0
          y: 0
        - x: 0
          y: 0
        - x: 0
          y: 0
        - x: 0
          y: 0
        - x: 0
          y: 0
        - x: 0
          y: 0
        - x: 0
          y: 0
        - x: 0
          y: 0
        - x: 0
          y: 0
        - x: 0
          y: 0
        - x: 0
          y: 0
        - x: 0
          y: 0
        - x: 0
          y: 0
        - x: 0
          y: 0
        - x: 0
          y: 0
        - x: 0
          y: 0
        - x: 0
          y: 0
        - x: 0
          y: 0
        - x: 0
          y: 0
        - x: 0
          y: 0
        - x: 0
          y: 0
        - x: 0
          y: 0
        - x: 0
          y: 0
        - x: 0
          y: 0
        - x: 0
          y: 0
        - x: 0
          y: 0
    - m_IDs: 000000000100000002000000030000000400000005000000060000000700000008000000090000000a0000000b0000000c0000000d0000000e0000000f000000100000001100000012000000130000001400000015000000160000001700000018000000190000001a0000001b0000001c0000001d0000001e0000001f000000200000002100000022000000
      m_IDToIndex: 000000000100000002000000030000000400000005000000060000000700000008000000090000000a0000000b0000000c0000000d0000000e0000000f000000100000001100000012000000130000001400000015000000160000001700000018000000190000001a0000001b0000001c0000001d0000001e0000001f000000200000002100000022000000
      m_ConstraintCount: 35
      m_ActiveConstraintCount: 2
      m_InitialActiveConstraintCount: 2
      particleIndices:
        serializedContents: 020000000400000003000000050000000700000006000000080000000a000000090000000b0000000d0000000c0000000e000000100000000f0000001100000013000000120000001400000016000000150000001700000019000000180000001a0000001c0000001b0000001d0000001f0000001e000000200000002200000021000000230000002500000024000000260000002800000027000000290000002b0000002a0000002c0000002e0000002d0000002f0000003100000030000000320000003400000033000000350000003700000036000000380000003a000000390000003b0000003d0000003c0000003e000000400000003f0000004100000043000000420000004400000046000000450000004700000049000000480000004a0000004c0000004b0000004d0000004f0000004e000000500000005200000051000000530000005500000054000000560000005800000057000000590000005b0000005a0000005c0000005e0000005d0000005f0000006100000060000000620000006400000063000000650000006700000066000000680000006a00000069000000
      lambdas:
        serializedContents: []
      restBends:
        serializedContents:
        - 2.682209E-06
        - 6.556511E-07
        - 0.33333334
        - 0
        - 0
        - 0
        - 0
        - 0
        - 0
        - 0
        - 0
        - 0
        - 0
        - 0
        - 0
        - 0
        - 0
        - 0
        - 0
        - 0
        - 0
        - 0
        - 0
        - 0
        - 0
        - 0
        - 0
        - 0
        - 0
        - 0
        - 0
        - 0
        - 0
        - 0
        - 0
      bendingStiffnesses:
        serializedContents:
        - x: 0
          y: 0
        - x: 0
          y: 0
        - x: 0
          y: 0
        - x: 0
          y: 0
        - x: 0
          y: 0
        - x: 0
          y: 0
        - x: 0
          y: 0
        - x: 0
          y: 0
        - x: 0
          y: 0
        - x: 0
          y: 0
        - x: 0
          y: 0
        - x: 0
          y: 0
        - x: 0
          y: 0
        - x: 0
          y: 0
        - x: 0
          y: 0
        - x: 0
          y: 0
        - x: 0
          y: 0
        - x: 0
          y: 0
        - x: 0
          y: 0
        - x: 0
          y: 0
        - x: 0
          y: 0
        - x: 0
          y: 0
        - x: 0
          y: 0
        - x: 0
          y: 0
        - x: 0
          y: 0
        - x: 0
          y: 0
        - x: 0
          y: 0
        - x: 0
          y: 0
        - x: 0
          y: 0
        - x: 0
          y: 0
        - x: 0
          y: 0
        - x: 0
          y: 0
        - x: 0
          y: 0
        - x: 0
          y: 0
        - x: 0
          y: 0
  skinConstraintsData:
    batches: []
  tetherConstraintsData:
    batches: []
  stretchShearConstraintsData:
    batches: []
  bendTwistConstraintsData:
    batches: []
  shapeMatchingConstraintsData:
    batches: []
  aerodynamicConstraintsData:
    batches: []
  chainConstraintsData:
    batches: []
  volumeConstraintsData:
    batches: []
  groups:
  - {fileID: 11400000, guid: ae6e48f6ae4039c48b4473bfd3920715, type: 2}
  - {fileID: 11400000, guid: 023a722bfe11252468c7da1ed1f291d9, type: 2}
  - {fileID: 11400000, guid: 9fecfe9df44e1254b8cdaaf37a0791a7, type: 2}
  path:
    m_Names:
    - end
    - breakPoint
    - start
    m_Points:
      data:
      - tangentMode: 0
        inTangent:
          x: -0.25
          y: -0
          z: -0
        position:
          x: 0.37856412
          y: 0
          z: 0
        outTangent:
          x: 0.1252175
          y: 0
          z: 0
      - tangentMode: 0
        inTangent:
          x: -0.09302062
          y: 0
          z: 0
        position:
          x: 0.68976676
          y: 0
          z: 0
        outTangent:
          x: 0.0926975
          y: 0
          z: 0
      - tangentMode: 0
        inTangent:
          x: -0.1247825
          y: 0
          z: 0
        position:
          x: 1
          y: 0
          z: 0
        outTangent:
          x: 0.25
          y: -0
          z: -0
    m_Normals:
      data:
      - x: 0
        y: 1
        z: 0
      - x: 0
        y: 1
        z: 0
      - x: 0
        y: 1
        z: 0
    m_Colors:
      data:
      - r: 1
        g: 1
        b: 1
        a: 1
      - r: 1
        g: 1
        b: 1
        a: 1
      - r: 1
        g: 1
        b: 1
        a: 1
    m_Thickness:
      data:
      - 1
      - 1
      - 1
    m_Masses:
      data:
      - 0.1
      - 0.1
      - 0.1
    m_RotationalMasses:
      data:
      - 1
      - 1
      - 1
    m_Phases:
      data: 010000000100000001000000
    m_Closed: 0
    m_ArcLengthTable:
    - 0
    - 0.017672295
    - 0.034926705
    - 0.051784165
    - 0.0682656
    - 0.08439195
    - 0.10018416
    - 0.11566313
    - 0.13084982
    - 0.14576516
    - 0.16043006
    - 0.17486548
    - 0.18909234
    - 0.20313156
    - 0.21700409
    - 0.23073086
    - 0.24433279
    - 0.25783083
    - 0.2712459
    - 0.28459895
    - 0.29791087
    - 0.31120265
    - 0.32444897
    - 0.3377168
    - 0.35102677
    - 0.36439967
    - 0.3778562
    - 0.39141706
    - 0.40510294
    - 0.41893458
    - 0.4329327
    - 0.44711804
    - 0.46151128
    - 0.47613314
    - 0.49100435
    - 0.5061456
    - 0.5215776
    - 0.5373211
    - 0.55339676
    - 0.56982535
    - 0.5866276
    - 0.6038242
    - 0.6214358
    m_TotalSplineLenght: 0.6214358
    OnPathChanged:
      m_PersistentCalls:
        m_Calls: []
    OnControlPointAdded:
      m_PersistentCalls:
        m_Calls: []
    OnControlPointRemoved:
      m_PersistentCalls:
        m_Calls: []
    OnControlPointRenamed:
      m_PersistentCalls:
        m_Calls: []
  thickness: 0.1
  resolution: 1
  m_InterParticleDistance: 0.07767948
  totalParticles: 109
  m_RestLength: 8.389391
  restLengths:
  - 0.077842265
  - 0.07778546
  - 0.077783465
  - 0.07779145
  - 0.07754904
  - 0.07754129
  - 0.07754332
  - 0.077599585
  - 0.07767948
  - 0.07767948
  - 0.07767948
  - 0.07767948
  - 0.07767948
  - 0.07767948
  - 0.07767948
  - 0.07767948
  - 0.07767948
  - 0.07767948
  - 0.07767948
  - 0.07767948
  - 0.07767948
  - 0.07767948
  - 0.07767948
  - 0.07767948
  - 0.07767948
  - 0.07767948
  - 0.07767948
  - 0.07767948
  - 0.07767948
  - 0.07767948
  - 0.07767948
  - 0.07767948
  - 0.07767948
  - 0.07767948
  - 0.07767948
  - 0.07767948
  - 0.07767948
  - 0.07767948
  - 0.07767948
  - 0.07767948
  - 0.07767948
  - 0.07767948
  - 0.07767948
  - 0.07767948
  - 0.07767948
  - 0.07767948
  - 0.07767948
  - 0.07767948
  - 0.07767948
  - 0.07767948
  - 0.07767948
  - 0.07767948
  - 0.07767948
  - 0.07767948
  - 0.07767948
  - 0.07767948
  - 0.07767948
  - 0.07767948
  - 0.07767948
  - 0.07767948
  - 0.07767948
  - 0.07767948
  - 0.07767948
  - 0.07767948
  - 0.07767948
  - 0.07767948
  - 0.07767948
  - 0.07767948
  - 0.07767948
  - 0.07767948
  - 0.07767948
  - 0.07767948
  - 0.07767948
  - 0.07767948
  - 0.07767948
  - 0.07767948
  - 0.07767948
  - 0.07767948
  - 0.07767948
  - 0.07767948
  - 0.07767948
  - 0.07767948
  - 0.07767948
  - 0.07767948
  - 0.07767948
  - 0.07767948
  - 0.07767948
  - 0.07767948
  - 0.07767948
  - 0.07767948
  - 0.07767948
  - 0.07767948
  - 0.07767948
  - 0.07767948
  - 0.07767948
  - 0.07767948
  - 0.07767948
  - 0.07767948
  - 0.07767948
  - 0.07767948
  - 0.07767948
  - 0.07767948
  - 0.07767948
  - 0.07767948
  - 0.07767948
  - 0.07767948
  - 0.07767948
  - 0.07767948
  - 0
  pooledParticles: 100
