%YAML 1.1
%TAG !u! tag:unity3d.com,2011:
--- !u!114 &11400000
MonoBehaviour:
  m_ObjectHideFlags: 0
  m_CorrespondingSourceObject: {fileID: 0}
  m_PrefabInstance: {fileID: 0}
  m_PrefabAsset: {fileID: 0}
  m_GameObject: {fileID: 0}
  m_Enabled: 1
  m_EditorHideFlags: 0
  m_Script: {fileID: 11500000, guid: 9ec569ead27d5603914b63900e48b655, type: 3}
  m_Name: start_8
  m_EditorClassIdentifier: 
  particleIndices: 08000000
  m_Blueprint: {fileID: 11400000, guid: 33584f79b2a2cf541a0752c5c2e60a96, type: 2}
