%YAML 1.1
%TAG !u! tag:unity3d.com,2011:
--- !u!21 &2100000
Material:
  serializedVersion: 6
  m_ObjectHideFlags: 0
  m_CorrespondingSourceObject: {fileID: 0}
  m_PrefabInstance: {fileID: 0}
  m_PrefabAsset: {fileID: 0}
  m_Name: DistanceFieldPreview_7
  m_Shader: {fileID: 4800000, guid: 3bdc890fae87d904f9ad30625057b13b, type: 3}
  m_ShaderKeywords: 
  m_LightmapFlags: 5
  m_EnableInstancingVariants: 0
  m_DoubleSidedGI: 0
  m_CustomRenderQueue: -1
  stringTagMap: {}
  disabledShaderPasses: []
  m_SavedProperties:
    serializedVersion: 3
    m_TexEnvs:
    - _Volume:
        m_Texture: {fileID: 0}
        m_Scale: {x: 1, y: 1}
        m_Offset: {x: 0, y: 0}
    m_Floats:
    - _Absorption: 2
    - _BumpScale: 1
    - _Cutoff: 0.5
    - _DetailNormalMapScale: 1
    - _DstBlend: 0
    - _Glossiness: 0.5
    - _MaxSteps: 300
    - _Metallic: 0
    - _Mode: 0
    - _OcclusionStrength: 1
    - _Parallax: 0.02
    - _SrcBlend: 1
    - _StepSize: 0.01
    - _UVSec: 0
    - _ZWrite: 1
    m_Colors:
    - _AABBMax: {r: 1.3624613, g: 1.3624613, b: 1.3624613, a: 0}
    - _AABBMin: {r: -1.3624613, g: -1.3624613, b: -1.3624613, a: 0}
    - _Color: {r: 1, g: 1, b: 1, a: 1}
    - _EmissionColor: {r: 0, g: 0, b: 0, a: 1}
    - _InsideColor: {r: 1, g: 1, b: 1, a: 1}
    - _OutsideColor: {r: 0, g: 0, b: 0, a: 1}
  m_BuildTextureStacks: []
